…
For each month select at random one presence and one background point (so, that will be 2 x 12 = 24 points!) from your model input data.  Then select three (3) variables in the Brickman present monthly data set, and build a single table that has the three variables for the 24 points.  This is **very similar** to the [C00 coding chapter homework](https://bigelowlab.github.io/ColbyForecasting/C00_coding.html#coding-assignment).

Hint!  Check out [iterating over grouped tables](https://bigelowlab.github.io/handytandy/iterations.html#groups-in-a-table) and the [`slice_sample` function](https://dplyr.tidyverse.org/reference/slice.html). 

Here's what our table looks like for the *Mola mola* species.  

```
Simple feature collection with 24 features and 7 fields
Geometry type: POINT
Dimension:     XY
Bounding box:  xmin: -72.99962 ymin: 39.07928 xmax: -65.51362 ymax: 43.89779
Geodetic CRS:  WGS 84
# A tibble: 24 × 8
   month class                      geom point  depth   SSS   SST  Tbtm
 * <fct> <fct>               <POINT [°]> <chr>  <dbl> <dbl> <dbl> <dbl>
 1 Jan   presence   (-72.05151 39.07928) p1    2116.   33.3 10.9   3.72
 2 Jan   background (-67.48795 40.36045) p2     789.   31.7  6.65  4.67
 3 Feb   presence   (-72.00363 39.67702) p1     231.   31.9  5.73  8.64
 4 Feb   background (-69.79134 40.60724) p2      60.4  31.2  3.58  3.89
 5 Mar   presence       (-72.056 39.205) p1    1362.   32.4  6.98  4.13
 6 Mar   background (-67.73474 42.66383) p2     194.   30.9  1.88  7.58
 7 Apr   presence      (-72.263 39.4379) p1     386.   31.7  7.08  6.44
 8 Apr   background  (-72.8351 39.20875) p2     102.   31.5  6.74 10.3 
 9 May   presence          (-66.3 41.25) p1     281.   31.2  8.03  7.12
10 May   background (-71.43661 39.62007) p2    1867.   31.9 11.4   3.78
# ℹ 14 more rows
# ℹ Use `print(n = ...)` to see more rows
```
…
