…
    ## # A tibble: 4 × 4
    ##   .metric    .estimator .estimate .config        
    ##   <chr>      <chr>          <dbl> <chr>          
    ## 1 accuracy   binary         0.713 pre0_mod0_post0
    ## 2 boyce_cont binary         0.910 pre0_mod0_post0
    ## 3 roc_auc    binary         0.799 pre0_mod0_post0
    ## 4 tss_max    binary         0.528 pre0_mod0_post0

``` r
rf$.predictions[[1]]
```

    ## # A tibble: 2,538 × 6
    ##    class      .pred_class .pred_presence .pred_background  .row .config        
    ##    <fct>      <fct>                <dbl>            <dbl> <int> <chr>          
    ##  1 presence   background         0.0533             0.947     1 pre0_mod0_post0
    ##  2 background background         0.00420            0.996    25 pre0_mod0_post0
    ##  3 background background         0.00525            0.995    36 pre0_mod0_post0
    ##  4 background background         0.0191             0.981    39 pre0_mod0_post0
    ##  5 background background         0.0102             0.990    41 pre0_mod0_post0
    ##  6 background background         0.00212            0.998    42 pre0_mod0_post0
    ##  7 background background         0.00603            0.994    45 pre0_mod0_post0
    ##  8 background background         0.00406            0.996    48 pre0_mod0_post0
    ##  9 background background         0.00951            0.990    49 pre0_mod0_post0
    ## 10 background background         0.0185             0.981    52 pre0_mod0_post0
    ## # ℹ 2,528 more rows
…
